<?xml version="1.0" encoding="utf-8"?>
<!-- Generator: Adobe Illustrator 16.0.0, SVG Export Plug-In . SVG Version: 6.00 Build 0)  -->
<!DOCTYPE svg PUBLIC "-//W3C//DTD SVG 1.1//EN" "http://www.w3.org/Graphics/SVG/1.1/DTD/svg11.dtd">
<svg version="1.1" id="Layer_1" xmlns:sketch="http://www.bohemiancoding.com/sketch/ns"
	 xmlns="http://www.w3.org/2000/svg" xmlns:xlink="http://www.w3.org/1999/xlink" x="0px" y="0px" width="15px" height="15px"
	 viewBox="0 0 15 15" enable-background="new 0 0 15 15" xml:space="preserve">
<title>Oval 1 + Line</title>
<desc>Created with Sketch.</desc>
<g id="Main" sketch:type="MSPage">
	<g id="Product-Gold" transform="translate(-1304.000000, -38.000000)" sketch:type="MSArtboardGroup">
		<g id="Oval-1-_x2B_-Line" transform="translate(1305.000000, 39.000000)" sketch:type="MSLayerGroup">
			<circle id="Oval-1" sketch:type="MSShapeGroup" fill="none" stroke="#FFFFFF" stroke-width="2" cx="5" cy="5" r="5">
			</circle>
			<path id="Line" sketch:type="MSShapeGroup" fill="none" stroke="#FFFFFF" stroke-width="2" stroke-linecap="square" d="M8.5,8.5
				l3.535,3.535"/>
		</g>
	</g>
</g>
</svg>
