<?xml version="1.0" encoding="UTF-8" standalone="no"?>
<svg width="22px" height="15px" viewBox="0 0 22 15" version="1.1" xmlns="http://www.w3.org/2000/svg" xmlns:xlink="http://www.w3.org/1999/xlink" xmlns:sketch="http://www.bohemiancoding.com/sketch/ns">
    <!-- Generator: Sketch 3.3.2 (12043) - http://www.bohemiancoding.com/sketch -->
    <title>Rectangle 2 + Rectangle 2 + Rectangle 2</title>
    <desc>Created with Sketch.</desc>
    <defs></defs>
    <g id="_Kit" stroke="none" stroke-width="1" fill="none" fill-rule="evenodd" sketch:type="MSPage">
        <g id="Main-Menu" sketch:type="MSArtboardGroup" transform="translate(-1272.000000, -50.000000)">
            <g id="Rectangle-2-+-Rectangle-2-+-Rectangle-2-+-RU" sketch:type="MSLayerGroup" transform="translate(1272.000000, 50.000000)">
                <g id="Rectangle-2-+-Rectangle-2-+-Rectangle-2" sketch:type="MSShapeGroup">
                    <rect id="Rectangle-5" x="1" y="1" width="20" height="4"></rect>
                    <rect id="Rectangle-2" stroke="#DDE1E5" fill="#FFFFFF" x="0" y="0" width="22" height="6"></rect>
                    <rect id="Rectangle-2" fill="#8AA8E0" x="0" y="5" width="22" height="5"></rect>
                    <rect id="Rectangle-2" fill="#CA5959" x="0" y="10" width="22" height="5"></rect>
                </g>
            </g>
        </g>
    </g>
</svg>