<?xml version="1.0" encoding="UTF-8" standalone="no"?>
<svg width="35px" height="35px" viewBox="0 0 35 35" version="1.1" xmlns="http://www.w3.org/2000/svg" xmlns:xlink="http://www.w3.org/1999/xlink" xmlns:sketch="http://www.bohemiancoding.com/sketch/ns">
    <!-- Generator: Sketch 3.3.1 (12002) - http://www.bohemiancoding.com/sketch -->
    <title>Rectangle 285 + Imported Layers 3</title>
    <desc>Created with Sketch.</desc>
    <defs></defs>
    <g id="_Kit" stroke="none" stroke-width="1" fill="none" fill-rule="evenodd" sketch:type="MSPage">
        <g id="Footer" sketch:type="MSArtboardGroup" transform="translate(-205.000000, -63.000000)">
            <g id="Rectangle-285-+-Imported-Layers-3" sketch:type="MSLayerGroup" transform="translate(205.000000, 63.000000)">
                <!-- <rect id="Rectangle-285" fill="#9E9FA7" sketch:type="MSShapeGroup" x="0" y="0" width="35" height="35"></rect> -->
                <path d="M16.8004255,22.9078933 L17.7533518,22.9078933 C17.7533518,22.9078933 18.0411273,22.876697 18.1882711,22.7209915 C18.3235132,22.5778749 18.3191904,22.3093105 18.3191904,22.3093105 C18.3191904,22.3093105 18.3005518,21.05174 18.8938992,20.8665498 C19.4790501,20.6840099 20.2302641,22.0819363 21.0264466,22.6195068 C21.6285518,23.0261633 22.0860957,22.9371571 22.0860957,22.9371571 L24.2152185,22.9078933 C24.2152185,22.9078933 25.3289308,22.8403105 24.8008185,21.9790712 C24.7575904,21.9087277 24.4931694,21.3420038 23.2177167,20.1776357 C21.8825869,18.9589363 22.0615624,19.1561081 23.6697027,17.0480651 C24.6490711,15.7642676 25.0405378,14.9805498 24.918208,14.6448995 C24.8016045,14.3250958 24.0812676,14.4095743 24.0812676,14.4095743 L21.6840746,14.424151 C21.6840746,14.424151 21.506222,14.4003535 21.3745167,14.4778749 C21.2456746,14.5536847 21.1629799,14.7308136 21.1629799,14.7308136 C21.1629799,14.7308136 20.783415,15.7241817 20.2775904,16.5691326 C19.2101378,18.3517952 18.7832466,18.4461571 18.6087624,18.335286 C18.2028115,18.0772676 18.3042571,17.2989608 18.3042571,16.7458749 C18.3042571,15.0182062 18.5706992,14.2978749 17.785408,14.1114148 C17.5248606,14.0495743 17.3329167,14.0086602 16.6664746,14.0019792 C15.8110641,13.9934209 15.0872466,14.0045743 14.6773097,14.2020222 C14.4045799,14.3334332 14.1941659,14.6260712 14.3223904,14.6429117 C14.4808746,14.6636725 14.8396115,14.7381571 15.029815,14.992697 C15.2755413,15.3215007 15.2669518,16.0596111 15.2669518,16.0596111 C15.2669518,16.0596111 15.4081448,18.0933351 14.9372957,18.3458872 C14.614208,18.519151 14.1709238,18.1654455 13.2191764,16.5480958 C12.7317097,15.7196541 12.3634852,14.8038074 12.3634852,14.8038074 C12.3634852,14.8038074 12.2925799,14.632697 12.1659273,14.5410958 C12.0123273,14.4301142 11.7977027,14.3949424 11.7977027,14.3949424 L9.51963955,14.4095743 C9.51963955,14.4095743 9.17774481,14.4189608 9.0521027,14.5652246 C8.94032726,14.6954209 9.04317639,14.9643719 9.04317639,14.9643719 C9.04317639,14.9643719 10.8265308,19.0680406 12.8460115,21.1359976 C14.6979132,23.0323473 16.8004255,22.9078933 16.8004255,22.9078933" id="Imported-Layers-3" fill="#FFFFFF" sketch:type="MSShapeGroup"></path>
            </g>
        </g>
    </g>
</svg>