<?xml version="1.0" encoding="UTF-8" standalone="no"?>
<svg width="6px" height="10px" viewBox="0 0 6 10" version="1.1" xmlns="http://www.w3.org/2000/svg" xmlns:xlink="http://www.w3.org/1999/xlink" xmlns:sketch="http://www.bohemiancoding.com/sketch/ns">
    <!-- Generator: Sketch 3.3 (11970) - http://www.bohemiancoding.com/sketch -->
    <title>Rectangle 19 + Rectangle 19</title>
    <desc>Created with Sketch.</desc>
    <defs></defs>
    <g id="Main" stroke="none" stroke-width="1" fill="none" fill-rule="evenodd" sketch:type="MSPage">
        <g id="Product-Gold" sketch:type="MSArtboardGroup" transform="translate(-154.000000, -116.000000)" fill="#676767">
            <g id="Серия-SPLAT-Special-+-Rectangle-19-+-Rectangle-19" sketch:type="MSLayerGroup" transform="translate(153.000000, 112.000000)">
                <g id="Rectangle-19-+-Rectangle-19" transform="translate(3.500000, 9.000000) rotate(-270.000000) translate(-3.500000, -9.000000) translate(-1.000000, 6.000000)" sketch:type="MSShapeGroup">
                    <path d="M0.0739418023,1.21882599 L1.01675084,0.367678942 L5.25939153,4.19784067 L4.31658249,5.04898772 L0.0739418023,1.21882599 L0.0739418023,1.21882599 Z" id="Rectangle-19"></path>
                    <path d="M8.59272486,1.21882599 L7.64991582,0.367678942 L3.40727514,4.19784067 L4.35008418,5.04898772 L8.59272486,1.21882599 L8.59272486,1.21882599 Z" id="Rectangle-19"></path>
                </g>
            </g>
        </g>
    </g>
</svg>