<?xml version="1.0" encoding="UTF-8" standalone="no"?>
<svg width="19px" height="35px" viewBox="0 0 19 35" version="1.1" xmlns="http://www.w3.org/2000/svg" xmlns:xlink="http://www.w3.org/1999/xlink" xmlns:sketch="http://www.bohemiancoding.com/sketch/ns">
    <!-- Generator: Sketch 3.3 (11970) - http://www.bohemiancoding.com/sketch -->
    <title>Line + Line</title>
    <desc>Created with Sketch.</desc>
    <defs></defs>
    <g id="Product" stroke="none" stroke-width="1" fill="none" fill-rule="evenodd" sketch:type="MSPage">
        <g id="Product-Gold" sketch:type="MSArtboardGroup" transform="translate(-1406.000000, -2379.000000)" stroke-linecap="square" stroke="#C11E43" stroke-width="2">
            <g id="Rectangle-447-+-Line-+-Line" sketch:type="MSLayerGroup" transform="translate(1384.000000, 2345.000000)">
                <g id="Line-+-Line" transform="translate(24.000000, 36.000000)" sketch:type="MSShapeGroup">
                    <path d="M0.235294118,0.236363636 L15.563762,15.6345064" id="Line"></path>
                    <path d="M0.235294118,15.3636364 L15.563762,30.7617791" id="Line" transform="translate(8.000000, 23.163636) scale(1, -1) translate(-8.000000, -23.163636) "></path>
                </g>
            </g>
        </g>
    </g>
</svg>